module pyroscope-pgo

go 1.23.0

require (
	github.com/grafana/pyroscope-go v1.1.2
	github.com/spf13/viper v1.19.0
	gitlab.com/golang-commonmark/markdown v0.0.0-20211110145824-bf3e522c626a
)

require (
	github.com/fsnotify/fsnotify v1.7.0 // indirect
	github.com/grafana/pyroscope-go/godeltaprof v0.1.8 // indirect
	github.com/hashicorp/hcl v1.0.0 // indirect
	github.com/klauspost/compress v1.17.8 // indirect
	github.com/magiconair/properties v1.8.7 // indirect
	github.com/mitchellh/mapstructure v1.5.0 // indirect
	github.com/pelletier/go-toml/v2 v2.2.2 // indirect
	github.com/sagikazarmark/locafero v0.4.0 // indirect
	github.com/sagikazarmark/slog-shim v0.1.0 // indirect
	github.com/sourcegraph/conc v0.3.0 // indirect
	github.com/spf13/afero v1.11.0 // indirect
	github.com/spf13/cast v1.6.0 // indirect
	github.com/spf13/pflag v1.0.5 // indirect
	github.com/subosito/gotenv v1.6.0 // indirect
	gitlab.com/golang-commonmark/html v0.0.0-20191124015941-a22733972181 // indirect
	gitlab.com/golang-commonmark/linkify v0.0.0-20191026162114-a0c2df6c8f82 // indirect
	gitlab.com/golang-commonmark/mdurl v0.0.0-20191124015652-932350d1cb84 // indirect
	gitlab.com/golang-commonmark/puny v0.0.0-20191124015043-9f83538fa04f // indirect
	go.uber.org/atomic v1.9.0 // indirect
	go.uber.org/multierr v1.9.0 // indirect
	golang.org/x/exp v0.0.0-20230905200255-921286631fa9 // indirect
	golang.org/x/sys v0.18.0 // indirect
	golang.org/x/text v0.14.0 // indirect
	gopkg.in/ini.v1 v1.67.0 // indirect
	gopkg.in/yaml.v3 v3.0.1 // indirect
)
